# Blender MTL File: 'None'
# Material Count: 1

newmtl ldraw_4
Ns 7.680002
Ka 1.000000 1.000000 1.000000
Kd 0.788235 0.101961 0.035294
Ks 0.089804 0.089804 0.089804
Ke 0.000000 0.000000 0.000000
Ni 1.450000
d 1.000000
illum 2
